<svg width="50" height="50" viewBox="0 0 50 50" fill="none" xmlns="http://www.w3.org/2000/svg">
<rect width="50" height="50" fill="white"/>
<path d="M47.4736 19.7838L47.4728 19.7826L40.6754 9.83342C40.6324 9.77047 40.6137 9.68844 40.6092 9.5943C40.606 9.52984 40.5867 9.4674 40.5536 9.41259L40.4682 9.46416L40.5536 9.41259C40.4543 9.24837 40.3121 9.11365 40.1416 9.02341C39.9496 8.92175 39.7311 8.88146 39.5155 8.9079H10.2603V8.9076L10.2527 8.90819C10.1033 8.91968 9.95811 8.96323 9.82707 9.03587L9.82024 9.03965L9.81408 9.04446C9.7588 9.08754 9.70831 9.13639 9.66344 9.19014C9.65612 9.19891 9.64771 9.20681 9.63837 9.21365C9.58562 9.25233 9.53699 9.2964 9.49328 9.34515L9.49283 9.34474L9.48638 9.35376L2.11811 19.6655L2.11777 19.666C2.00887 19.8203 1.94314 20.0008 1.92727 20.1889C1.897 20.3187 1.89193 20.4528 1.91206 20.584C1.91931 20.6312 1.92303 20.6795 1.92375 20.7283L1.9243 20.7496C1.92611 20.7983 1.94606 20.842 1.97547 20.875L24.6575 46.3828C24.7714 46.5109 24.9346 46.5841 25.1059 46.5841H25.8626C25.9655 46.5841 26.063 46.5382 26.1286 46.4589L47.1992 21.0018L47.1222 20.9381L47.1992 21.0018C47.2239 20.9721 47.2401 20.9339 47.2415 20.8918C47.2417 20.8864 47.2419 20.8809 47.242 20.8755C47.2636 20.8691 47.2886 20.8617 47.315 20.8537C47.3935 20.83 47.489 20.8001 47.5432 20.779C47.6116 20.7524 47.642 20.6929 47.651 20.6419C47.6741 20.5107 47.6714 20.3761 47.6429 20.2457C47.6234 20.0806 47.5654 19.9224 47.4736 19.7838ZM13.0547 12.0669L13.0545 12.0666L12.7682 11.6632C12.5802 11.3984 12.7696 11.0317 13.0944 11.0317H22.0126C22.3368 11.0317 22.5264 11.3972 22.3396 11.6622L17.8788 17.9895C17.7194 18.2156 17.3841 18.2155 17.2249 17.9893L13.0547 12.0669ZM15.063 18.5881L15.063 18.5881C15.251 18.853 15.0616 19.2196 14.7368 19.2196H5.80078C5.47634 19.2196 5.28688 18.8537 5.47413 18.5888L9.93437 12.278C10.0936 12.0527 10.4277 12.0524 10.5873 12.2775L15.063 18.5881ZM24.4943 12.2688C24.6552 12.0466 24.987 12.0487 25.1451 12.273L29.6116 18.6084C29.7984 18.8734 29.6089 19.2389 29.2847 19.2389H20.305C19.9808 19.2389 19.7913 18.8734 19.9781 18.6084L22.7308 14.7034L22.7315 14.7023L24.4943 12.2688ZM30.3339 21.3627C30.5956 21.3627 30.7868 21.6097 30.7211 21.863L25.8385 40.7084C25.7376 41.0976 25.1899 41.1114 25.0696 40.7277L19.159 21.8824C19.0782 21.6247 19.2706 21.3627 19.5407 21.3627H30.3339ZM22.4877 39.6348C22.6166 40.0469 22.0914 40.3426 21.8059 40.0187L5.93083 22.0079C5.70314 21.7496 5.88656 21.3435 6.23091 21.3435H16.4723C16.6472 21.3435 16.8019 21.4571 16.8541 21.624L22.4877 39.6348ZM32.9043 21.6633C32.9496 21.4864 33.1091 21.3627 33.2917 21.3627H43.5041C43.842 21.3627 44.0277 21.7556 43.8131 22.0167L28.9664 40.0821C28.6947 40.4128 28.1636 40.1433 28.2699 39.7288L32.9043 21.6633ZM34.978 19.2389C34.6547 19.2389 34.4649 18.8752 34.6499 18.61L39.059 12.2887C39.2182 12.0605 39.556 12.0605 39.7152 12.2887L44.1243 18.61C44.3093 18.8752 44.1195 19.2389 43.7962 19.2389H34.978ZM36.5819 11.0317C36.9052 11.0317 37.0949 11.3954 36.9099 11.6606L32.5008 17.9819C32.3416 18.2101 32.0039 18.2101 31.8447 17.9819L27.4355 11.6606C27.2506 11.3954 27.4403 11.0317 27.7636 11.0317H36.5819Z" fill="#230032" stroke="#230032" stroke-width="0.2"/>
</svg>
