<svg width="50" height="50" viewBox="0 0 50 50" fill="none" xmlns="http://www.w3.org/2000/svg">
<rect width="50" height="50" fill="white"/>
<path d="M25.5 36.75L37.75 24.5L43 29.75L30.75 42L25.5 36.75Z" stroke="#230032" stroke-width="2.5" stroke-linecap="round" stroke-linejoin="round"/>
<path d="M36 26.25L33.375 13.125L8 7L14.125 32.375L27.25 35L36 26.25Z" stroke="#230032" stroke-width="2.5" stroke-linecap="round" stroke-linejoin="round"/>
<path d="M8 7L21.2755 20.2755" stroke="#230032" stroke-width="2.5" stroke-linecap="round" stroke-linejoin="round"/>
<path d="M23.75 26.25C25.683 26.25 27.25 24.683 27.25 22.75C27.25 20.817 25.683 19.25 23.75 19.25C21.817 19.25 20.25 20.817 20.25 22.75C20.25 24.683 21.817 26.25 23.75 26.25Z" stroke="#230032" stroke-width="2.5" stroke-linecap="round" stroke-linejoin="round"/>
</svg>
