<svg width="50" height="50" viewBox="0 0 50 50" fill="none" xmlns="http://www.w3.org/2000/svg">
<rect width="50" height="50" fill="white"/>
<path d="M34.6009 43.9993H39.62C40.6839 44.0183 41.7177 43.6419 42.5251 42.9414C43.3325 42.2409 43.8574 41.2652 44 40.1994V26.8996C43.8574 25.8339 43.3325 24.8581 42.5251 24.1576C41.7177 23.4571 40.6839 23.0807 39.62 23.0997H34.6009M21.4421 19.2998V11.6999C21.4421 10.1882 22.0362 8.7384 23.0938 7.66946C24.1514 6.60052 25.5859 6 27.0815 6L34.6009 23.0997V43.9993H13.3964C12.4897 44.0097 11.6098 43.6885 10.919 43.0949C10.2281 42.5014 9.77269 41.6755 9.63674 40.7694L7.04257 23.6697C6.96079 23.1251 6.99713 22.569 7.14909 22.04C7.30104 21.511 7.56497 21.0217 7.9226 20.606C8.28022 20.1903 8.72299 19.8582 9.22022 19.6327C9.71745 19.4071 10.2573 19.2935 10.8022 19.2998H21.4421Z" stroke="#230032" stroke-width="3" stroke-linecap="round" stroke-linejoin="round"/>
</svg>
