<svg width="50" height="50" viewBox="0 0 50 50" fill="none" xmlns="http://www.w3.org/2000/svg">
<rect width="50" height="50" fill="white"/>
<path d="M34.6009 7.00069H39.62C40.6839 6.98167 41.7177 7.35814 42.5251 8.05862C43.3325 8.75911 43.8574 9.73485 44 10.8006V24.1004C43.8574 25.1661 43.3325 26.1419 42.5251 26.8424C41.7177 27.5429 40.6839 27.9193 39.62 27.9003H34.6009M21.4421 31.7002V39.3001C21.4421 40.8118 22.0362 42.2616 23.0938 43.3305C24.1514 44.3995 25.5859 45 27.0815 45L34.6009 27.9003V7.00069H13.3964C12.4897 6.99033 11.6098 7.31151 10.919 7.90506C10.2281 8.49861 9.77269 9.32452 9.63674 10.2306L7.04257 27.3303C6.96079 27.8749 6.99713 28.431 7.14909 28.96C7.30104 29.489 7.56497 29.9783 7.9226 30.394C8.28022 30.8097 8.72299 31.1418 9.22022 31.3673C9.71745 31.5929 10.2573 31.7065 10.8022 31.7002H21.4421Z" stroke="#230032" stroke-width="3" stroke-linecap="round" stroke-linejoin="round"/>
</svg>
