<svg width="194" height="38" viewBox="0 0 194 38" fill="none" xmlns="http://www.w3.org/2000/svg">
<path d="M27.5405 9.18015L24.2356 21.4816L20.6553 9.18015H14.2292L10.649 21.4816L7.34412 9.18015H0L7.34412 32.1305H13.7702L17.4423 19.875L21.1143 32.1305H27.5405L34.8846 9.18015H27.5405Z" fill="white"/>
<path d="M50.4103 8.53754C47.3808 8.53754 45.0858 9.63916 43.8465 11.3375V0H36.9614V32.1305H43.8465V19.5996C43.8465 16.3407 45.5907 14.8718 48.1153 14.8718C50.3185 14.8718 52.1086 16.203 52.1086 19.0488V32.1305H58.9937V18.039C58.9937 11.8424 55.0463 8.53754 50.4103 8.53754Z" fill="white"/>
<path d="M79.0724 9.18015V11.3375C77.5577 9.59326 75.3085 8.53754 72.2332 8.53754C66.2202 8.53754 61.2629 13.8161 61.2629 20.6553C61.2629 27.4946 66.2202 32.7731 72.2332 32.7731C75.3085 32.7731 77.5577 31.7174 79.0724 29.9732V32.1305H85.9575V9.18015H79.0724ZM73.6102 26.2552C70.4431 26.2552 68.148 24.0979 68.148 20.6553C68.148 17.2128 70.4431 15.0554 73.6102 15.0554C76.7774 15.0554 79.0724 17.2128 79.0724 20.6553C79.0724 24.0979 76.7774 26.2552 73.6102 26.2552Z" fill="white"/>
<path d="M103.802 15.7899V9.18015H99.0742V2.75405L92.1891 4.81958V9.18015H88.517V15.7899H92.1891V23.9143C92.1891 30.3404 94.8054 33.0485 103.802 32.1305V25.888C100.772 26.0716 99.0742 25.888 99.0742 23.9143V15.7899H103.802Z" fill="white"/>
<path d="M119.63 8.53754C116.601 8.53754 114.306 9.63916 113.066 11.3375V9.18015H106.181V32.1305H113.066V19.5996C113.066 16.3407 114.811 14.8718 117.335 14.8718C119.538 14.8718 121.329 16.203 121.329 19.0488V32.1305H128.214V18.039C128.214 11.8424 124.266 8.53754 119.63 8.53754Z" fill="white"/>
<path d="M176.703 32.1305L168.486 20.4717L176.427 9.18015H168.532L164.539 14.8718L160.545 9.18015H154.618L160.591 20.4717L154.342 32.1305H160.27L164.539 26.0716L168.808 32.1305H176.703Z" fill="white"/>
<path d="M194 15.7899V9.18015H189.272V2.75405L182.387 4.81958V9.18015H178.715V15.7899H182.387V23.9143C182.387 30.3404 185.003 33.0485 194 32.1305V25.888C190.971 26.0716 189.272 25.888 189.272 23.9143V15.7899H194Z" fill="white"/>
<path d="M139.854 25.2448L153.784 16.7913C153.489 15.9505 153.091 15.1181 152.591 14.294C148.995 8.36865 142.066 6.50617 136.337 9.98279C130.137 13.7452 128.638 20.8296 132.186 26.6765C135.734 32.5234 142.632 34.512 149.342 30.44C153.07 28.1779 155.14 25.0423 155.444 21.2071L149.092 21.357C148.831 22.6965 147.838 24.1578 146.229 25.1341C144.071 26.4438 141.838 26.8328 139.854 25.2448ZM137.069 20.9212C136.404 18.5866 137.228 16.5829 139.465 15.2256C141.231 14.1541 143.497 13.9066 145.506 15.8015L137.069 20.9212Z" fill="white"/>
<path d="M160.725 9.18018L168.62 20.4718L160.449 32.1306H152.227L160.449 20.4718L152.554 9.18018H160.725Z" fill="#B955E6"/>
</svg>
